A,A,A,B,B,B,B,B,B,A,A,A,A,A,A,A,A
A,A,B,C,G,C,C,C,C,B,A,A,A,A,A,A,A
A,A,B,G,G,G,C,C,C,C,B,A,A,A,A,A,A
A,B,B,B,B,B,B,C,C,C,C,B,A,A,A,A,A
B,C,C,C,C,C,C,B,C,C,C,C,B,A,A,A,A
A,B,B,E,E,F,E,E,B,B,C,C,B,A,A,A,A
A,A,A,E,B,F,B,E,F,F,B,C,C,B,A,A,A
A,A,B,E,B,F,B,E,F,F,B,C,C,B,A,A,A
A,B,F,F,F,F,F,F,F,B,B,B,B,B,A,A,A
A,B,F,F,F,F,F,B,F,B,F,F,B,A,A,A,A
A,A,B,F,F,F,B,B,B,F,F,F,B,A,A,A,A
A,A,A,B,B,B,B,B,F,F,F,B,B,A,A,A,A
A,A,A,A,B,F,F,F,F,B,B,B,A,A,A,A,A
A,A,A,A,B,B,B,B,B,C,C,C,B,A,A,A,A
A,A,A,B,C,D,C,C,D,C,C,C,C,B,A,A,A
A,A,A,B,C,D,C,C,D,C,C,C,C,B,A,A,A
A,A,B,C,D,D,D,D,D,C,C,C,C,C,B,A,A
A,A,B,C,G,D,D,G,G,C,C,C,C,C,B,A,A
A,B,E,B,G,D,D,G,G,C,C,C,E,E,E,B,A
A,B,E,B,D,D,D,D,D,D,B,E,E,E,E,E,B
A,B,E,B,B,D,D,D,D,D,B,E,E,E,E,E,B
A,A,B,B,D,D,D,D,D,D,B,E,E,E,E,B,A
A,A,A,A,B,D,D,D,B,D,D,B,B,B,B,A,A
A,A,A,A,B,D,D,D,B,D,D,D,D,D,B,A,A
A,A,A,B,B,B,B,B,B,B,B,B,B,B,B,B,A
A,A,B,H,H,H,H,B,H,H,H,H,H,H,H,H,B
A,A,B,H,H,H,H,B,H,H,H,H,H,H,H,H,B
A,A,A,B,B,B,B,B,B,B,B,B,B,B,B,B,A
