B,B,B,B,A,A,A,A,A,A,A,A,A,A,A,A,A,A,A,A,A,A,A,A,A,A,A,A,A,A,A,B,B,B,B
B,G,G,G,B,B,B,A,A,A,A,A,A,A,A,B,B,B,B,B,A,A,A,A,A,A,A,A,B,B,B,G,G,G,B
B,F,F,G,G,G,G,B,A,A,A,A,A,B,B,G,G,G,G,G,B,B,A,A,A,A,A,B,G,G,G,F,F,F,B
A,B,F,F,F,F,G,G,B,B,A,A,B,G,G,G,G,G,G,G,G,G,B,A,A,B,B,G,G,F,F,F,E,B,A
A,B,E,E,F,F,F,G,G,G,B,B,G,G,G,G,G,G,G,G,G,G,G,B,B,G,G,G,F,F,F,E,E,B,A
A,B,E,E,E,F,F,F,G,G,G,B,G,G,G,G,G,G,G,G,G,G,G,B,G,G,G,F,F,F,E,E,E,B,A
A,A,B,E,E,E,F,F,G,G,B,G,G,G,G,G,G,G,G,G,G,G,G,G,B,G,G,F,F,E,E,E,B,A,A
A,A,A,B,E,E,E,F,F,G,B,G,C,C,C,G,G,G,G,G,C,C,C,G,B,G,F,F,E,E,E,B,A,A,A
A,A,A,A,B,E,E,E,F,F,B,C,C,D,C,C,G,G,G,C,C,D,C,C,B,F,F,E,E,E,E,B,A,A,A
A,A,A,A,A,B,E,E,E,F,B,C,C,C,C,C,G,C,G,C,C,C,C,C,B,F,F,E,E,B,B,A,A,A,A
A,A,A,A,A,A,B,B,B,G,B,C,C,C,C,C,G,G,G,C,C,C,C,C,B,G,B,B,B,A,A,A,A,A,A
A,A,A,A,A,A,A,A,A,B,B,G,C,C,C,G,C,G,C,G,C,C,C,G,B,B,A,A,A,A,A,A,A,A,A
A,A,A,A,A,A,A,A,A,A,A,B,G,G,G,G,C,C,C,G,G,G,G,B,A,A,A,A,A,A,A,A,A,A,A
A,A,A,A,A,A,A,A,A,A,A,A,B,B,G,G,G,G,G,G,G,B,B,A,A,A,A,A,A,A,A,A,A,A,A
A,A,A,A,A,A,A,A,A,A,A,A,A,C,C,B,B,B,B,B,C,C,A,A,A,A,A,A,A,A,A,A,A,A,A
A,A,A,A,A,A,A,A,A,A,A,A,C,H,H,C,G,G,G,C,H,H,C,A,A,A,A,A,A,A,A,A,A,A,A
A,A,A,A,A,A,A,A,A,A,A,A,A,C,H,H,C,C,C,H,H,C,A,A,A,A,A,A,A,A,A,A,A,A,A
A,A,A,A,A,A,A,A,A,A,A,A,C,H,C,H,H,H,H,H,C,H,C,A,A,A,A,A,A,A,A,A,A,A,A
A,A,A,A,A,A,A,A,A,A,A,C,H,H,H,H,H,H,H,H,H,H,H,C,A,A,A,A,A,A,A,A,A,A,A
A,A,A,A,A,A,A,A,A,A,B,G,C,H,H,H,H,H,H,H,H,H,C,G,B,A,A,A,A,A,A,A,A,A,A
A,A,A,A,A,A,A,A,A,A,B,G,G,C,C,C,C,C,C,C,C,C,G,G,B,A,A,A,A,A,A,A,A,A,A
A,A,A,A,A,A,A,A,A,A,A,B,B,C,H,H,C,C,H,H,H,C,B,B,A,A,A,A,A,A,A,A,A,A,A
A,A,A,A,A,A,A,A,A,A,A,A,A,C,H,H,C,H,H,H,H,C,A,A,A,A,A,A,A,A,A,A,A,A,A
A,A,A,A,A,A,A,A,A,A,A,A,C,H,H,H,C,H,H,H,H,H,C,A,A,A,A,A,A,A,A,A,A,A,A
A,A,A,A,A,A,A,A,A,A,A,C,H,H,H,H,H,H,H,H,H,H,H,C,A,A,A,A,A,A,A,A,A,A,A
